…
``` r
library(tidyverse)
```

``` r
co2 <- 
read_table("https://gml.noaa.gov/webdata/ccgg/trends/co2/co2_mm_mlo.txt", 
                  comment="#",
                  col_names = c("year", "month", "decimal_date", "monthly_average",
                                "interpolated", "days","std", ""),
                  na = c("-1", "-9.99","-0.99"))
co2
```

    ## # A tibble: 786 × 8
    ##     year month decimal_date monthly_average interpolated  days   std    ``
    ##    <dbl> <dbl>        <dbl>           <dbl>        <dbl> <dbl> <dbl> <dbl>
    ##  1  1958     3        1958.            316.         314.    NA    NA    NA
    ##  2  1958     4        1958.            317.         315.    NA    NA    NA
    ##  3  1958     5        1958.            318.         315.    NA    NA    NA
    ##  4  1958     6        1958.            317.         315.    NA    NA    NA
    ##  5  1958     7        1959.            316.         315.    NA    NA    NA
    ##  6  1958     8        1959.            315.         316.    NA    NA    NA
    ##  7  1958     9        1959.            313.         316.    NA    NA    NA
    ##  8  1958    10        1959.            312.         315.    NA    NA    NA
    ##  9  1958    11        1959.            313.         315.    NA    NA    NA
    ## 10  1958    12        1959.            315.         315.    NA    NA    NA
    ## # ℹ 776 more rows
…
Construct the necessary R code to import and prepare for manipulation
the following data set:
<http://climate.nasa.gov/system/internal_resources/details/original/647_Global_Temperature_Data_File.txt>

``` r
climate <- read_table("http://climate.nasa.gov/system/internal_resources/details/original/647_Global_Temperature_Data_File.txt",
           col_names = c("year", "annual_average", "five_year_average"),
           na="NA",
           col_types = ('ddd'),
           skip = 5
           )
climate
```

    ## # A tibble: 142 × 3
    ##     year annual_average five_year_average
    ##    <dbl>          <dbl>             <dbl>
    ##  1  1880          -0.16             -0.09
    ##  2  1881          -0.08             -0.13
    ##  3  1882          -0.11             -0.16
    ##  4  1883          -0.17             -0.2 
    ##  5  1884          -0.28             -0.24
    ##  6  1885          -0.33             -0.26
    ##  7  1886          -0.31             -0.27
    ##  8  1887          -0.36             -0.27
    ##  9  1888          -0.17             -0.26
    ## 10  1889          -0.1              -0.25
    ## # ℹ 132 more rows
…
    ## The following objects are masked from 'package:base':
    ## 
    ##     as.Date, as.Date.numeric

``` r
#calculate 10-year & 20-year rolling average
climate = climate %>%
  mutate(ten_year_avg = rollmean(climate$annual_average, k=10, fill=NA, align='right'),
         twenty_year_avg = rollmean(climate$annual_average, k=20, fill=NA, align='right'));
climate
```

    ## # A tibble: 142 × 5
    ##     year annual_average five_year_average ten_year_avg twenty_year_avg
    ##    <dbl>          <dbl>             <dbl>        <dbl>           <dbl>
    ##  1  1880          -0.16             -0.09       NA                  NA
    ##  2  1881          -0.08             -0.13       NA                  NA
    ##  3  1882          -0.11             -0.16       NA                  NA
    ##  4  1883          -0.17             -0.2        NA                  NA
    ##  5  1884          -0.28             -0.24       NA                  NA
    ##  6  1885          -0.33             -0.26       NA                  NA
    ##  7  1886          -0.31             -0.27       NA                  NA
    ##  8  1887          -0.36             -0.27       NA                  NA
    ##  9  1888          -0.17             -0.26       NA                  NA
    ## 10  1889          -0.1              -0.25       -0.207              NA
    ## # ℹ 132 more rows
…
Construct the necessary R code to import this data set as a tidy `Table`
object.

``` r
IceMass<-read_csv("http://climate.nasa.gov/system/internal_resources/details/original/499_GRN_ANT_mass_changes.csv",
              col_names = c("year","greenland","antarctica"),
              col_types = ('ddd'),
              skip = 10)
IceMass
```

    ## # A tibble: 140 × 3
    ##     year greenland antarctica
    ##    <dbl>     <dbl>      <dbl>
    ##  1 2002.     1491.       967.
    ##  2 2002.     1486.       979.
    ##  3 2003.     1287.       512.
    ##  4 2003.     1258.       859.
    ##  5 2003.     1257.       694.
    ##  6 2003.     1288.       592.
    ##  7 2003.     1337.       658.
    ##  8 2003.     1354.       477.
    ##  9 2003.     1363.       546.
    ## 10 2003.     1427.       494.
    ## # ℹ 130 more rows
…
``` r
SeaLevel<- SeaLevel[ ,c('year', 'GMSL', 'Smoothed_60_days')]
SeaLevel
```

    ## # A tibble: 847 × 3
    ##     year  GMSL Smoothed_60_days
    ##    <dbl> <dbl>            <dbl>
    ##  1 1993. -13.5           -14.1 
    ##  2 1993. -17.1           -14.7 
    ##  3 1993. -17.1           -14.2 
    ##  4 1993. -19.2           -14.2 
    ##  5 1993. -13.8           -13.0 
    ##  6 1993. -12.1           -11.8 
    ##  7 1993. -11.8           -10.6 
    ##  8 1993. -10.5            -9.73
    ##  9 1993. -10.7            -9.12
    ## 10 1993. -18.5            -8.76
    ## # ℹ 837 more rows
…
    ## Warning: One or more parsing issues, call `problems()` on your data frame for details,
    ## e.g.:
    ##   dat <- vroom(...)
    ##   problems(dat)

``` r
ArcticIce$Date<-as.Date(with(ArcticIce,paste(Year,Month,Day,sep="-")),"%Y-%m-%d")
ArcticIce <- ArcticIce [ ,c('Date', 'Extent') ]
ArcticIce
```

    ## # A tibble: 14,741 × 2
    ##    Date       Extent
    ##    <date>      <dbl>
    ##  1 NA           NA  
    ##  2 1978-10-26   10.2
    ##  3 1978-10-28   10.4
    ##  4 1978-10-30   10.6
    ##  5 1978-11-01   10.7
    ##  6 1978-11-03   10.8
    ##  7 1978-11-05   11.0
    ##  8 1978-11-07   11.1
    ##  9 1978-11-09   11.2
    ## 10 1978-11-11   11.3
    ## # ℹ 14,731 more rows
…
